
ship5.png
size: 2000,224
format: RGBA8888
filter: Linear,Linear
repeat: none
1
  rotate: false
  xy: 1730, 134
  size: 89, 89
  orig: 89, 89
  offset: 0, 0
  index: -1
11
  rotate: false
  xy: 1196, 131
  size: 442, 92
  orig: 442, 92
  offset: 0, 0
  index: -1
12
  rotate: false
  xy: 1639, 133
  size: 90, 90
  orig: 90, 90
  offset: 0, 0
  index: -1
13
  rotate: true
  xy: 1820, 136
  size: 87, 72
  orig: 87, 72
  offset: 0, 0
  index: -1
14
  rotate: false
  xy: 1366, 53
  size: 217, 77
  orig: 217, 77
  offset: 0, 0
  index: -1
15
  rotate: false
  xy: 1784, 1
  size: 213, 132
  orig: 213, 132
  offset: 0, 0
  index: -1
16
  rotate: false
  xy: 1196, 23
  size: 169, 107
  orig: 169, 107
  offset: 0, 0
  index: -1
17
  rotate: true
  xy: 716, 6
  size: 217, 479
  orig: 217, 479
  offset: 0, 0
  index: -1
18
  rotate: false
  xy: 1893, 151
  size: 71, 72
  orig: 71, 72
  offset: 0, 0
  index: -1
2
  rotate: false
  xy: 1584, 13
  size: 94, 117
  orig: 94, 117
  offset: 0, 0
  index: -1
3
  rotate: false
  xy: 1584, 13
  size: 94, 117
  orig: 94, 117
  offset: 0, 0
  index: -1
4
  rotate: false
  xy: 1366, 9
  size: 72, 43
  orig: 72, 43
  offset: 0, 0
  index: -1
5
  rotate: true
  xy: 1439, 1
  size: 51, 38
  orig: 51, 38
  offset: 0, 0
  index: -1
6
  rotate: false
  xy: 1241, 4
  size: 44, 18
  orig: 44, 18
  offset: 0, 0
  index: -1
7
  rotate: false
  xy: 1196, 2
  size: 44, 20
  orig: 44, 20
  offset: 0, 0
  index: -1
8
  rotate: false
  xy: 1679, 28
  size: 104, 104
  orig: 104, 104
  offset: 0, 0
  index: -1
9
  rotate: false
  xy: 1, 5
  size: 714, 218
  orig: 714, 218
  offset: 0, 0
  index: -1
