
do_xang.png
size: 344,504
format: RGBA8888
filter: Linear,Linear
repeat: none
1
  rotate: false
  xy: 227, 254
  size: 114, 249
  orig: 114, 249
  offset: 0, 0
  index: -1
2
  rotate: false
  xy: 1, 7
  size: 183, 257
  orig: 183, 257
  offset: 0, 0
  index: -1
3
  rotate: false
  xy: 1, 265
  size: 225, 238
  orig: 225, 238
  offset: 0, 0
  index: -1
4
  rotate: false
  xy: 185, 1
  size: 144, 252
  orig: 144, 252
  offset: 0, 0
  index: -1
