{
"skeleton": {
	"hash": "7XjWw306rsuYgLheTJyw7wV5W9A",
	"spine": "3.8.99",
	"x": -414.47,
	"y": -713.39,
	"width": 496.97,
	"height": 733.89,
	"images": "./bg3/ruathuyen/rua/",
	"audio": "C:/Users/Pc-08/Desktop/xuatfile_gameisland/bg3/ruathuyen/rua"
},
"bones": [
	{ "name": "root" },
	{ "name": "5", "parent": "root", "length": 165.24, "rotation": -89.23, "x": 0.24, "y": -9.14 },
	{ "name": "1", "parent": "5", "length": 145.36, "rotation": -1.59, "x": 164.93, "y": -0.19 },
	{ "name": "3", "parent": "1", "length": 179.38, "rotation": -23.36, "x": 145.68, "y": 0.06 },
	{ "name": "6", "parent": "3", "length": 216.43, "rotation": -36.72, "x": 179.4, "y": -0.76 },
	{ "name": "4", "parent": "6", "x": 211.88, "y": 10.86 },
	{ "name": "8", "parent": "root", "x": -274.1, "y": -576.02, "color": "ff3f00ff" },
	{ "name": "7", "parent": "8", "x": 193.52, "y": 96.46, "color": "ff3f00ff" },
	{ "name": "2", "parent": "7", "x": 80.43, "y": 160.56, "color": "ff3f00ff" }
],
"slots": [
	{ "name": "5", "bone": "5", "attachment": "5" },
	{ "name": "4", "bone": "6", "attachment": "4" },
	{ "name": "3", "bone": "4", "attachment": "3" },
	{ "name": "2", "bone": "3", "attachment": "2" },
	{ "name": "1", "bone": "1", "attachment": "1" }
],
"ik": [
	{
		"name": "1",
		"bones": [ "5", "1" ],
		"target": "2",
		"bendPositive": false
	},
	{
		"name": "2",
		"order": 1,
		"bones": [ "3" ],
		"target": "7"
	},
	{
		"name": "3",
		"order": 2,
		"bones": [ "6" ],
		"target": "8"
	}
],
"skins": [
	{
		"name": "default",
		"attachments": {
			"1": {
				"1": { "x": 70.7, "y": -0.55, "rotation": 89.82, "width": 114, "height": 249 }
			},
			"2": {
				"2": { "x": 112.15, "y": -1.26, "rotation": 113.18, "width": 183, "height": 257 }
			},
			"3": {
				"3": { "x": -0.45, "y": 2.96, "rotation": 149.9, "width": 287, "height": 237 },
				"rua_eff/1": { "x": -1.63, "y": 5.96, "rotation": 91, "width": 251, "height": 308 },
				"rua_eff/2": { "x": -1.63, "y": 5.96, "rotation": 91, "width": 283, "height": 306 },
				"rua_eff/3": { "x": -1.63, "y": 5.96, "rotation": 91, "width": 247, "height": 306 }
			},
			"4": {
				"4": { "x": 81.89, "y": -12.24, "rotation": 149.9, "width": 201, "height": 114 }
			},
			"5": {
				"5": { "x": 97.22, "y": -0.3, "rotation": 89.85, "width": 144, "height": 247 }
			}
		}
	}
],
"animations": {
	"idle": {
		"bones": {
			"root": {
				"rotate": [
					{}
				],
				"translate": [
					{}
				]
			},
			"5": {
				"rotate": [
					{ "angle": 2.08 }
				],
				"translate": [
					{}
				]
			},
			"1": {
				"rotate": [
					{ "angle": -4.56 }
				],
				"translate": [
					{}
				]
			},
			"3": {
				"rotate": [
					{}
				],
				"translate": [
					{}
				]
			},
			"6": {
				"rotate": [
					{ "angle": 0.02 }
				],
				"translate": [
					{}
				]
			},
			"4": {
				"rotate": [
					{}
				],
				"translate": [
					{}
				]
			},
			"8": {
				"rotate": [
					{}
				],
				"translate": [
					{},
					{ "time": 0.6667, "x": 1.92, "y": 3.85 },
					{ "time": 1.3333 }
				]
			},
			"7": {
				"rotate": [
					{}
				],
				"translate": [
					{},
					{ "time": 0.6667, "x": 3.85 },
					{ "time": 1.3333 }
				]
			},
			"2": {
				"rotate": [
					{}
				],
				"translate": [
					{},
					{ "time": 0.6667, "x": 3.46, "y": -2.67 },
					{ "time": 1.3333 }
				]
			}
		}
	},
	"mix_target": {
		"slots": {
			"3": {
				"attachment": [
					{ "name": "rua_eff/1" },
					{ "time": 0.0333, "name": "rua_eff/2" },
					{ "time": 0.0667, "name": "rua_eff/3" }
				]
			}
		}
	},
	"target": {}
}
}