{
"skeleton": {
	"hash": "ltJQdMic/FdKZtan+duTcfo6qR4",
	"spine": "3.8.99",
	"x": -39.76,
	"y": -2.17,
	"width": 49,
	"height": 139,
	"images": "",
	"audio": ""
},
"bones": [
	{ "name": "root" },
	{ "name": "rong1", "parent": "root", "length": 20.87, "rotation": 110.05, "x": 2.73, "y": 7.63 },
	{ "name": "rong3", "parent": "rong1", "length": 19.1, "rotation": -17.66, "x": 22.05, "y": 0.13 },
	{ "name": "rong2", "parent": "rong3", "length": 20.41, "rotation": -0.9, "x": 19.91, "y": 0.5 },
	{ "name": "rong5", "parent": "rong2", "length": 16.35, "rotation": 15.48, "x": 20.67, "y": -0.27 },
	{ "name": "rong4", "parent": "rong5", "length": 19.92, "rotation": 11.64, "x": 16.45, "y": -0.58 },
	{ "name": "rong7", "parent": "rong4", "length": 20.68, "rotation": 2.23, "x": 19.35, "y": 0.61 }
],
"slots": [
	{ "name": "rong1", "bone": "rong7", "attachment": "rong1" }
],
"skins": [
	{
		"name": "default",
		"attachments": {
			"rong1": {
				"rong1": {
					"type": "mesh",
					"uvs": [ 0.82372, 1, 0.6586, 1, 0.54784, 0.92218, 0.3294, 0.76871, 0.384, 0.61729, 0.41603, 0.52847, 0.15613, 0.39816, 0.03868, 0.29249, 0, 0.25768, 0, 0.07241, 0.17346, 0, 0.36982, 0, 0.43335, 0.09888, 0.61863, 0.1834, 0.82609, 0.27804, 0.85584, 0.31914, 0.96884, 0.47524, 1, 0.51829, 1, 0.60874, 1, 0.74592, 1, 0.92229, 1, 1, 0.86693, 0.93046, 0.71868, 0.77694, 0.70015, 0.63976, 0.67236, 0.49115, 0.60287, 0.37684, 0.3944, 0.25599 ],
					"triangles": [ 12, 10, 11, 27, 12, 13, 12, 8, 9, 10, 12, 9, 27, 8, 12, 7, 8, 27, 6, 7, 27, 6, 27, 26, 25, 16, 17, 27, 13, 14, 26, 27, 14, 26, 14, 15, 26, 15, 16, 25, 26, 16, 5, 6, 26, 5, 26, 25, 17, 24, 25, 5, 25, 24, 4, 5, 24, 18, 24, 17, 24, 18, 19, 3, 4, 24, 23, 24, 19, 3, 24, 23, 2, 3, 23, 23, 19, 20, 22, 2, 23, 20, 22, 23, 1, 2, 22, 0, 1, 22, 22, 20, 21, 0, 22, 21 ],
					"vertices": [ 2, 1, -8.48, 5.36, 1, 4, -70.01, 13.89, 0, 2, 1, -5.7, 12.96, 1, 4, -67.65, 21.63, 0, 3, 1, 6.32, 14.35, 0.94283, 2, -19.31, 8.77, 0.05717, 4, -55.72, 23.66, 0, 4, 1, 30.03, 17.1, 0.04125, 2, 2.45, 18.58, 0.85698, 3, -17.74, 17.81, 0.10177, 4, -32.19, 27.68, 0, 3, 2, 23.37, 15.03, 0.10321, 3, 3.23, 14.59, 0.89679, 4, -12.84, 18.97, 0, 3, 3, 15.53, 12.7, 0.90253, 4, -1.49, 13.87, 0.08776, 6, -33.31, 18.47, 0.0097, 4, 3, 33.97, 24.96, 0.11764, 5, 7.35, 20.28, 0.02344, 4, 19.55, 20.77, 0.5219, 6, -11.23, 20.12, 0.33703, 4, 3, 48.8, 30.33, 0.01006, 5, 23, 18.3, 0.0014, 4, 35.28, 21.98, 0.13534, 6, 4.33, 17.53, 0.8532, 3, 3, 53.69, 32.1, 0.00262, 4, 40.46, 22.39, 0.06948, 6, 9.46, 16.68, 0.92791, 1, 6, 31.57, 3.48, 1, 1, 6, 35.86, -8.98, 1, 2, 5, 50.92, -15.41, 0.00223, 6, 30.92, -17.24, 0.99777, 2, 5, 37.37, -11.56, 0.14611, 6, 17.53, -12.87, 0.85389, 2, 5, 22.7, -13.91, 0.8938, 6, 2.79, -14.64, 0.1062, 1, 5, 6.29, -16.53, 1, 2, 5, 0.57, -15.07, 0.96503, 4, 20.05, -15.23, 0.03497, 4, 2, 41.91, -14.42, 0.03645, 3, 22.22, -14.57, 0.00176, 5, -21.12, -9.55, 0.10084, 4, -2.32, -14.2, 0.86095, 4, 2, 35.86, -15.7, 0.12023, 3, 16.2, -15.94, 0.06566, 5, -27.11, -8.02, 0.03072, 4, -8.49, -13.91, 0.78338, 4, 1, 39.65, -21.4, 0.00999, 2, 23.3, -15.18, 0.60626, 3, 3.64, -15.62, 0.15781, 4, -20.51, -10.24, 0.22594, 3, 1, 21.74, -14.86, 0.47992, 2, 4.25, -14.38, 0.51873, 4, -38.75, -4.68, 0.00135, 1, 1, -1.29, -6.46, 1, 1, 1, -11.44, -2.75, 1, 2, 1, -0.12, 0.06, 1, 4, -61.38, 9.04, 0, 2, 1, 22.41, -0.43, 0.03368, 2, 0.52, -0.43, 0.96632, 4, 1, 40.64, -6.11, 1.4E-4, 2, 19.61, -0.32, 0.70741, 3, -0.29, -0.82, 0.29099, 4, -20.35, 5.07, 0.00146, 2, 3, 20.39, 0.01, 1, 6, -35.29, 5.03, 0, 1, 5, -0.53, -0.35, 1, 2, 5, 19.11, 0.57, 0.05891, 6, -0.24, -0.03, 0.94109 ],
					"hull": 22,
					"edges": [ 10, 12, 16, 18, 18, 20, 20, 22, 22, 24, 2, 4, 4, 6, 4, 44, 40, 42, 44, 40, 6, 46, 38, 40, 46, 38, 6, 8, 8, 10, 8, 48, 34, 36, 36, 38, 48, 36, 10, 50, 32, 34, 50, 32, 12, 52, 28, 30, 30, 32, 52, 30, 12, 14, 14, 16, 14, 54, 24, 26, 26, 28, 54, 26, 2, 0, 0, 42 ],
					"width": 49,
					"height": 139
				}
			}
		}
	}
],
"animations": {
	"idle": {
		"bones": {
			"root": {
				"rotate": [
					{}
				],
				"translate": [
					{}
				]
			},
			"rong1": {
				"rotate": [
					{},
					{ "time": 0.6667, "angle": 2.24 },
					{ "time": 1.3333 }
				],
				"translate": [
					{}
				]
			},
			"rong3": {
				"rotate": [
					{},
					{ "time": 0.6667, "angle": 2.24 },
					{ "time": 1.3333 }
				],
				"translate": [
					{}
				]
			},
			"rong2": {
				"rotate": [
					{},
					{ "time": 0.6667, "angle": 5.55 },
					{ "time": 1.3333 }
				],
				"translate": [
					{}
				]
			},
			"rong5": {
				"rotate": [
					{},
					{ "time": 0.6667, "angle": 5.55 },
					{ "time": 1.3333 }
				],
				"translate": [
					{}
				]
			},
			"rong4": {
				"rotate": [
					{},
					{ "time": 0.6667, "angle": 5.55 },
					{ "time": 1.3333 }
				],
				"translate": [
					{}
				]
			},
			"rong7": {
				"rotate": [
					{},
					{ "time": 0.6667, "angle": 5.55 },
					{ "time": 1.3333 }
				],
				"translate": [
					{}
				]
			}
		}
	}
}
}