{"skeleton":{"images":""},
"bones":[{"name":"root"}],
"slots":[
	{"name":"18","bone":"root","attachment":"18"},
	{"name":"17","bone":"root","attachment":"17"},
	{"name":"16","bone":"root","attachment":"16"},
	{"name":"15","bone":"root","attachment":"15"},
	{"name":"14","bone":"root","attachment":"14"},
	{"name":"13","bone":"root","attachment":"13"},
	{"name":"12","bone":"root","attachment":"12"},
	{"name":"11","bone":"root","attachment":"11"},
	{"name":"9","bone":"root","attachment":"9"},
	{"name":"8","bone":"root","attachment":"8"},
	{"name":"7","bone":"root","attachment":"7"},
	{"name":"6","bone":"root","attachment":"6"},
	{"name":"5","bone":"root","attachment":"5"},
	{"name":"4","bone":"root","attachment":"4"},
	{"name":"3","bone":"root","attachment":"3"},
	{"name":"2","bone":"root","attachment":"2"},
	{"name":"1","bone":"root","attachment":"1"}
],
"skins":{
	"default":{
		"1":{"1":{"x":980.5,"y":301.5,"width":89,"height":89}},
		"2":{"2":{"x":580,"y":251.5,"width":94,"height":117}},
		"3":{"3":{"x":472,"y":251.5,"width":94,"height":117}},
		"4":{"4":{"x":699,"y":240.5,"width":72,"height":43}},
		"5":{"5":{"x":699.5,"y":239,"width":51,"height":38}},
		"6":{"6":{"x":699,"y":228,"width":44,"height":18}},
		"7":{"7":{"x":699,"y":237,"width":44,"height":20}},
		"8":{"8":{"x":535,"y":700,"width":104,"height":104}},
		"9":{"9":{"x":665,"y":239,"width":714,"height":218}},
		"11":{"11":{"x":761,"y":346,"width":442,"height":92}},
		"12":{"12":{"x":679,"y":287,"width":90,"height":90}},
		"13":{"13":{"x":703.5,"y":292,"width":87,"height":72}},
		"14":{"14":{"x":785.5,"y":307.5,"width":217,"height":77}},
		"15":{"15":{"x":762.5,"y":246,"width":213,"height":132}},
		"16":{"16":{"x":439.5,"y":513.5,"width":169,"height":107}},
		"17":{"17":{"x":441.5,"y":471.5,"width":217,"height":479}},
		"18":{"18":{"x":390.5,"y":619,"width":71,"height":72}}
	}
},
"animations":{"animation":{}}
}