
ship8.png
size: 1368,476
format: RGBA8888
filter: Linear,Linear
repeat: none
1
  rotate: false
  xy: 459, 88
  size: 72, 43
  orig: 72, 43
  offset: 0, 0
  index: -1
10
  rotate: false
  xy: 387, 56
  size: 71, 75
  orig: 71, 75
  offset: 0, 0
  index: -1
2
  rotate: false
  xy: 532, 93
  size: 51, 38
  orig: 51, 38
  offset: 0, 0
  index: -1
3
  rotate: false
  xy: 311, 37
  size: 44, 18
  orig: 44, 18
  offset: 0, 0
  index: -1
4
  rotate: false
  xy: 1, 2
  size: 44, 20
  orig: 44, 20
  offset: 0, 0
  index: -1
5
  rotate: false
  xy: 206, 27
  size: 104, 104
  orig: 104, 104
  offset: 0, 0
  index: -1
6
  rotate: false
  xy: 311, 56
  size: 75, 75
  orig: 75, 75
  offset: 0, 0
  index: -1
7
  rotate: false
  xy: 1, 132
  size: 821, 343
  orig: 821, 343
  offset: 0, 0
  index: -1
8
  rotate: false
  xy: 1, 23
  size: 204, 108
  orig: 204, 108
  offset: 0, 0
  index: -1
9
  rotate: true
  xy: 823, 1
  size: 474, 544
  orig: 474, 544
  offset: 0, 0
  index: -1
